452929	  8	   4200.00	 2	 Anne
948664	  7	   31400.00	 3	 Arenal
955338	  2	   41700.00	 3	 Blueberry
614203	  6	   18900.00	 3	 Coco
307387	  6	   22200.00	 2	 Cossio
944064	  4	   10000.00	 2	 Cretino
